[2017-08-16 02:37:44.007 GMT     1	INFO   	100404	Silo	127.0.0.1:22222]	Silo starting with GC settings: ServerGC=True GCLatencyMode=Batch	
[2017-08-16 02:37:44.024 GMT     1	INFO   	100403	Silo	127.0.0.1:22222]	-------------- Initializing Primary silo on host DESKTOP-UJQCPPI MachineName DESKTOP-UJQCPPI at 127.0.0.1:22222, gen 240547063 --------------	
[2017-08-16 02:37:44.057 GMT     1	INFO   	100415	Silo	127.0.0.1:22222]	Starting silo DESKTOP-UJQCPPI with the following configuration= 
Config File Name: 
Host: DESKTOP-UJQCPPI
Start time: 2017-08-16 02:37:44.025 GMT
Primary node: 127.0.0.1:22222
Platform version info:
   Orleans version: 1.4.0.0 (Release).
   .NET version: 4.0.30319.42000
   Is .NET 4.5=True
   OS version: Microsoft Windows NT 6.2.9200.0
   GC Type=Server GCLatencyMode=Batch
Global configuration:
   System Ids:
      ServiceId: 00000000-0000-0000-0000-000000000000
      DeploymentId: 
   Subnet: 
   Seed nodes: 127.0.0.1:22222
   Messaging:
       Response timeout: 00:00:30
       Maximum resend count: 0
       Resend On Timeout: False
       Maximum Socket Age: 10675199.02:48:05.4775807
       Drop Expired Messages: True
       Silo Sender queues: 8
       Gateway Sender queues: 8
       Client Drop Timeout: 00:01:00
       Buffer Pool Buffer Size: 4096
       Buffer Pool Max Size: 10000
       Buffer Pool Preallocation Size: 250
       Maximum forward count: 2
       Fallback serializer: 
   Liveness:
      LivenessEnabled: True
      LivenessType: MembershipTableGrain
      ProbeTimeout: 00:00:10
      TableRefreshTimeout: 00:01:00
      DeathVoteExpirationTimeout: 00:02:00
      NumMissedProbesLimit: 3
      NumProbedSilos: 3
      NumVotesForDeathDeclaration: 2
      UseLivenessGossip: True
      ValidateInitialConnectivity: True
      IAmAliveTablePublishTimeout: 00:05:00
      NumMissedTableIAmAliveLimit: 2
      MaxJoinAttemptTime: 00:05:00
      ExpectedClusterSize: 20
   MultiClusterNetwork: N/A
   SystemStore:
      SystemStore ConnectionString: null
      Reminders ConnectionString: null
   Application:
      Defaults:
         Deactivate if idle for: 02:00:00

   PlacementStrategy: 
         Default Placement Strategy: RandomPlacement
         Deployment Load Publisher Refresh Time: 00:00:01
         Activation CountBased Placement Choose Out Of: 2
   Grain directory cache:
      Maximum size: 1000000 grains
      Initial TTL: 00:00:30
      Maximum TTL: 00:04:00
      TTL extension factor: 2.00
      Directory Caching Strategy: Adaptive
   Grain directory:
      Lazy deregistration delay: 00:01:00
      Client registration refresh: 00:05:00
   Reminder Service:
       ReminderServiceType: ReminderTableGrain
   Consistent Ring:
       Use Virtual Buckets Consistent Ring: True
       Num Virtual Buckets Consistent Ring: 30
   Providers:
       StorageProviders:
           Name=MemoryStore, Type=Orleans.Storage.MemoryStorage, Properties=[NumStorageGrains]

Silo configuration:
   Silo Name: DESKTOP-UJQCPPI
   Generation: 240547063
   Host Name or IP Address: localhost
   DNS Host Name: DESKTOP-UJQCPPI
   Port: 22222
   Subnet: 
   Preferred Address Family: InterNetwork
   Proxy Gateway: 127.0.0.1:40000
   IsPrimaryNode: True
   Scheduler: 
         Max Active Threads: 8
         Processor Count: 8
         Delay Warning Threshold: 00:00:10
         Activation Scheduling Quantum: 00:00:00.1000000
         Turn Warning Length Threshold: 00:00:00.2000000
         Inject More Worker Threads: False
         MinDotNetThreadPoolSize: 200
         .NET thread pool sizes - Min: Worker Threads=8 Completion Port Threads=8
         .NET thread pool sizes - Max: Worker Threads=32767 Completion Port Threads=1000
         .NET ServicePointManager - DefaultConnectionLimit=200 Expect100Continue=False UseNagleAlgorithm=False
   Load Shedding Enabled: False
   Load Shedding Limit: 95
   SiloShutdownEventName: 
   Debug: 
   Tracing: 
     Default Trace Level: Info
     TraceLevelOverrides: None
     Trace to Console: True
     Trace File Name: E:\JooPro\Orleans\Host\bin\Debug\DESKTOP-UJQCPPI-2017-08-16-02.37.43.802Z.log
     LargeMessageWarningThreshold: 85000
     PropagateActivityId: False
     BulkMessageLimit: 5
   Statistics: 
     MetricsTableWriteInterval: 00:00:30
     PerfCounterWriteInterval: 00:00:30
     LogWriteInterval: 00:05:00
     WriteLogStatisticsToTable: True
     StatisticsCollectionLevel: Info

	
[2017-08-16 02:37:44.908 GMT     1	INFO   	100000	Scheduler.OrleansTaskScheduler	127.0.0.1:22222]	Starting OrleansTaskScheduler with 8 Max Active application Threads and 1 system thread.	
[2017-08-16 02:37:44.958 GMT     1	INFO   	100000	AssemblyLoader.Silo	127.0.0.1:22222]	Searching for assemblies in E:\JooPro\Orleans\Host\bin\Debug...	
[2017-08-16 02:37:45.049 GMT     1	INFO   	100000	AssemblyLoader.Silo	127.0.0.1:22222]	User assembly ignored: E:\JooPro\Orleans\Host\bin\Debug\Antlr3.Runtime.dll
	* Assembly does not contain any acceptable grain types.
	* Assembly contains no types assignable from Orleans.Providers.IProvider.	
[2017-08-16 02:37:45.054 GMT     1	INFO   	100000	AssemblyLoader.Silo	127.0.0.1:22222]	User assembly ignored: E:\JooPro\Orleans\Host\bin\Debug\IGrain.dll
	* Assembly does not contain any acceptable grain types.
	* Assembly contains no types assignable from Orleans.Providers.IProvider.	
[2017-08-16 02:37:45.056 GMT     1	INFO   	100000	AssemblyLoader.Silo	127.0.0.1:22222]	User assembly ignored: E:\JooPro\Orleans\Host\bin\Debug\IGrainRedis.dll
	* Assembly does not contain any acceptable grain types.
	* Assembly contains no types assignable from Orleans.Providers.IProvider.	
[2017-08-16 02:37:45.227 GMT     1	INFO   	100000	AssemblyLoader.Silo	127.0.0.1:22222]	User assembly ignored: E:\JooPro\Orleans\Host\bin\Debug\Microsoft.CodeAnalysis.CSharp.dll
	* Assembly does not contain any acceptable grain types.
	* Assembly contains no types assignable from Orleans.Providers.IProvider.	
[2017-08-16 02:37:45.306 GMT     1	INFO   	100000	AssemblyLoader.Silo	127.0.0.1:22222]	User assembly ignored: E:\JooPro\Orleans\Host\bin\Debug\Microsoft.CodeAnalysis.dll
	* Assembly does not contain any acceptable grain types.
	* Assembly contains no types assignable from Orleans.Providers.IProvider.	
[2017-08-16 02:37:45.314 GMT     1	INFO   	100000	AssemblyLoader.Silo	127.0.0.1:22222]	User assembly ignored: E:\JooPro\Orleans\Host\bin\Debug\Microsoft.Diagnostics.Tracing.EventSource.dll
	* Assembly does not contain any acceptable grain types.
	* Assembly contains no types assignable from Orleans.Providers.IProvider.	
[2017-08-16 02:37:45.317 GMT     1	INFO   	100000	AssemblyLoader.Silo	127.0.0.1:22222]	User assembly ignored: E:\JooPro\Orleans\Host\bin\Debug\Microsoft.Extensions.DependencyInjection.Abstractions.dll
	* Assembly does not contain any acceptable grain types.
	* Assembly contains no types assignable from Orleans.Providers.IProvider.	
[2017-08-16 02:37:45.322 GMT     1	INFO   	100000	AssemblyLoader.Silo	127.0.0.1:22222]	User assembly ignored: E:\JooPro\Orleans\Host\bin\Debug\Microsoft.Extensions.DependencyInjection.dll
	* Assembly does not contain any acceptable grain types.
	* Assembly contains no types assignable from Orleans.Providers.IProvider.	
[2017-08-16 02:37:45.327 GMT     1	INFO   	100000	AssemblyLoader.Silo	127.0.0.1:22222]	User assembly ignored: E:\JooPro\Orleans\Host\bin\Debug\Microsoft.Web.Infrastructure.dll
	* Assembly does not contain any acceptable grain types.
	* Assembly contains no types assignable from Orleans.Providers.IProvider.	
[2017-08-16 02:37:45.346 GMT     1	INFO   	100000	AssemblyLoader.Silo	127.0.0.1:22222]	User assembly ignored: E:\JooPro\Orleans\Host\bin\Debug\MongoDB.Bson.dll
	* Assembly does not contain any acceptable grain types.
	* Assembly contains no types assignable from Orleans.Providers.IProvider.	
[2017-08-16 02:37:45.366 GMT     1	INFO   	100000	AssemblyLoader.Silo	127.0.0.1:22222]	User assembly ignored: E:\JooPro\Orleans\Host\bin\Debug\MongoDB.Driver.Core.dll
	* Assembly does not contain any acceptable grain types.
	* Assembly contains no types assignable from Orleans.Providers.IProvider.	
[2017-08-16 02:37:45.379 GMT     1	INFO   	100000	AssemblyLoader.Silo	127.0.0.1:22222]	User assembly ignored: E:\JooPro\Orleans\Host\bin\Debug\MongoDB.Driver.dll
	* Assembly does not contain any acceptable grain types.
	* Assembly contains no types assignable from Orleans.Providers.IProvider.	
[2017-08-16 02:37:45.393 GMT     1	INFO   	100000	AssemblyLoader.Silo	127.0.0.1:22222]	User assembly ignored: E:\JooPro\Orleans\Host\bin\Debug\Newtonsoft.Json.dll
	* Assembly does not contain any acceptable grain types.
	* Assembly contains no types assignable from Orleans.Providers.IProvider.	
[2017-08-16 02:37:45.395 GMT     1	INFO   	100000	AssemblyLoader.Silo	127.0.0.1:22222]	User assembly ignored: E:\JooPro\Orleans\Host\bin\Debug\Orleans.dll
	* Assembly filename is excluded.	
[2017-08-16 02:37:45.397 GMT     1	INFO   	100000	AssemblyLoader.Silo	127.0.0.1:22222]	User assembly ignored: E:\JooPro\Orleans\Host\bin\Debug\OrleansCodeGenerator.dll
	* Assembly does not contain any acceptable grain types.
	* Assembly contains no types assignable from Orleans.Providers.IProvider.	
[2017-08-16 02:37:45.403 GMT     1	INFO   	100000	AssemblyLoader.Silo	127.0.0.1:22222]	User assembly ignored: E:\JooPro\Orleans\Host\bin\Debug\OrleansRuntime.dll
	* Assembly filename is excluded.	
[2017-08-16 02:37:45.412 GMT     1	INFO   	100000	AssemblyLoader.Silo	127.0.0.1:22222]	User assembly ignored: E:\JooPro\Orleans\Host\bin\Debug\RabbitMQ.Client.dll
	* Assembly does not contain any acceptable grain types.
	* Assembly contains no types assignable from Orleans.Providers.IProvider.	
[2017-08-16 02:37:45.415 GMT     1	INFO   	100000	AssemblyLoader.Silo	127.0.0.1:22222]	User assembly ignored: E:\JooPro\Orleans\Host\bin\Debug\Send.MQ.dll
	* Assembly does not contain any acceptable grain types.
	* Assembly contains no types assignable from Orleans.Providers.IProvider.	
[2017-08-16 02:37:45.426 GMT     1	INFO   	100000	AssemblyLoader.Silo	127.0.0.1:22222]	User assembly ignored: E:\JooPro\Orleans\Host\bin\Debug\System.Collections.Immutable.dll
	* Assembly does not contain any acceptable grain types.
	* Assembly contains no types assignable from Orleans.Providers.IProvider.	
[2017-08-16 02:37:45.435 GMT     1	INFO   	100000	AssemblyLoader.Silo	127.0.0.1:22222]	User assembly ignored: E:\JooPro\Orleans\Host\bin\Debug\System.Net.Http.Formatting.dll
	* Assembly does not contain any acceptable grain types.
	* Assembly contains no types assignable from Orleans.Providers.IProvider.	
[2017-08-16 02:37:45.452 GMT     1	INFO   	100000	AssemblyLoader.Silo	127.0.0.1:22222]	User assembly ignored: E:\JooPro\Orleans\Host\bin\Debug\System.Reflection.Metadata.dll
	* Assembly does not contain any acceptable grain types.
	* Assembly contains no types assignable from Orleans.Providers.IProvider.	
[2017-08-16 02:37:45.468 GMT     1	INFO   	100000	AssemblyLoader.Silo	127.0.0.1:22222]	User assembly ignored: E:\JooPro\Orleans\Host\bin\Debug\System.Web.Http.dll
	* Assembly does not contain any acceptable grain types.
	* Assembly contains no types assignable from Orleans.Providers.IProvider.	
[2017-08-16 02:37:45.472 GMT     1	INFO   	100000	AssemblyLoader.Silo	127.0.0.1:22222]	User assembly ignored: E:\JooPro\Orleans\Host\bin\Debug\System.Web.Http.WebHost.dll
	* Assembly does not contain any acceptable grain types.
	* Assembly contains no types assignable from Orleans.Providers.IProvider.	
[2017-08-16 02:37:45.491 GMT     1	INFO   	100000	AssemblyLoader.Silo	127.0.0.1:22222]	User assembly ignored: E:\JooPro\Orleans\Host\bin\Debug\System.Web.Mvc.dll
	* Assembly does not contain any acceptable grain types.
	* Assembly contains no types assignable from Orleans.Providers.IProvider.	
[2017-08-16 02:37:45.494 GMT     1	INFO   	100000	AssemblyLoader.Silo	127.0.0.1:22222]	User assembly ignored: E:\JooPro\Orleans\Host\bin\Debug\System.Web.Optimization.dll
	* Assembly does not contain any acceptable grain types.
	* Assembly contains no types assignable from Orleans.Providers.IProvider.	
[2017-08-16 02:37:45.501 GMT     1	INFO   	100000	AssemblyLoader.Silo	127.0.0.1:22222]	User assembly ignored: E:\JooPro\Orleans\Host\bin\Debug\System.Web.Razor.dll
	* Assembly does not contain any acceptable grain types.
	* Assembly contains no types assignable from Orleans.Providers.IProvider.	
[2017-08-16 02:37:45.503 GMT     1	INFO   	100000	AssemblyLoader.Silo	127.0.0.1:22222]	User assembly ignored: E:\JooPro\Orleans\Host\bin\Debug\System.Web.WebPages.Deployment.dll
	* Assembly does not contain any acceptable grain types.
	* Assembly contains no types assignable from Orleans.Providers.IProvider.	
[2017-08-16 02:37:45.509 GMT     1	INFO   	100000	AssemblyLoader.Silo	127.0.0.1:22222]	User assembly ignored: E:\JooPro\Orleans\Host\bin\Debug\System.Web.WebPages.dll
	* Assembly does not contain any acceptable grain types.
	* Assembly contains no types assignable from Orleans.Providers.IProvider.	
[2017-08-16 02:37:45.514 GMT     1	INFO   	100000	AssemblyLoader.Silo	127.0.0.1:22222]	User assembly ignored: E:\JooPro\Orleans\Host\bin\Debug\System.Web.WebPages.Razor.dll
	* Assembly does not contain any acceptable grain types.
	* Assembly contains no types assignable from Orleans.Providers.IProvider.	
[2017-08-16 02:37:45.518 GMT     1	INFO   	100000	AssemblyLoader.Silo	127.0.0.1:22222]	User assembly ignored: E:\JooPro\Orleans\Host\bin\Debug\WebApi.dll
	* Assembly does not contain any acceptable grain types.
	* Assembly contains no types assignable from Orleans.Providers.IProvider.	
[2017-08-16 02:37:45.535 GMT     1	INFO   	100000	AssemblyLoader.Silo	127.0.0.1:22222]	User assembly ignored: E:\JooPro\Orleans\Host\bin\Debug\WebGrease.dll
	* Assembly does not contain any acceptable grain types.
	* Assembly contains no types assignable from Orleans.Providers.IProvider.	
[2017-08-16 02:37:45.537 GMT     1	WARNING	101705	AssemblyLoader.Silo	127.0.0.1:22222]	Unable to find directory E:\JooPro\Orleans\Host\bin\Debug\Applications; skipping.	
[2017-08-16 02:37:45.539 GMT     1	INFO   	100000	AssemblyLoader.Silo	127.0.0.1:22222]	Loading assembly E:\JooPro\Orleans\Host\bin\Debug\Grain.dll...	
[2017-08-16 02:37:45.550 GMT     1	INFO   	100000	AssemblyLoader.Silo	127.0.0.1:22222]	Loading assembly E:\JooPro\Orleans\Host\bin\Debug\GrainsRedis.dll...	
[2017-08-16 02:37:45.558 GMT     1	INFO   	100000	AssemblyLoader.Silo	127.0.0.1:22222]	Loading assembly E:\JooPro\Orleans\Host\bin\Debug\OrleansProviders.dll...	
[2017-08-16 02:37:45.560 GMT     1	INFO   	100000	AssemblyLoader.Silo	127.0.0.1:22222]	3 assemblies loaded.	
[2017-08-16 02:37:47.278 GMT     1	INFO   	101010	Runtime.Messaging.IncomingMessageAcceptor	127.0.0.1:22222]	Opened a listening socket at address 127.0.0.1:22222	
[2017-08-16 02:37:47.286 GMT     1	INFO   	101010	Runtime.Messaging.GatewayAcceptor	127.0.0.1:22222]	Opened a listening socket at address 127.0.0.1:40000	
[2017-08-16 02:37:47.315 GMT     1	INFO   	100000	VirtualBucketsRingProvider	127.0.0.1:22222]	Starting VirtualBucketsRingProvider on silo S127.0.0.1:22222:240547063/xEC227CF9.	
[2017-08-16 02:37:47.362 GMT     1	INFO   	103003	VirtualBucketsRingProvider	127.0.0.1:22222]	Added Server S127.0.0.1:22222:240547063/xEC227CF9. Current view: [S127.0.0.1:22222:240547063 -> <MultiRange: Size=x100000000, %Ring=100.000%>]	
[2017-08-16 02:37:47.366 GMT     1	INFO   	103005	VirtualBucketsRingProvider	127.0.0.1:22222]	-NotifyLocalRangeSubscribers about old <(0 0], Size=x100000000, %Ring=100.000%> new <MultiRange: Size=x100000000, %Ring=100.000%> increased? True	
[2017-08-16 02:37:47.377 GMT     1	INFO   	100000	Silo	127.0.0.1:22222]	Skip multicluster oracle creation (no multicluster network configured)	
[2017-08-16 02:37:47.380 GMT     1	INFO   	100294	SystemStatus	127.0.0.1:22222]	SystemStatus=Created	
[2017-08-16 02:37:47.382 GMT     1	INFO   	100422	Silo	127.0.0.1:22222]	-------------- Started silo S127.0.0.1:22222:240547063, ConsistentHashCode EC227CF9 --------------	
[2017-08-16 02:37:47.384 GMT     1	INFO   	100288	OrleansSiloHost	127.0.0.1:22222]	Successfully initialized Orleans silo 'DESKTOP-UJQCPPI' as a Primary node.	
[2017-08-16 02:37:47.389 GMT     1	INFO   	100441	OrleansSiloHost	127.0.0.1:22222]	Silo shutdown event name: DESKTOP-UJQCPPI-Shutdown	
[2017-08-16 02:37:47.390 GMT     1	INFO   	100442	OrleansSiloHost	127.0.0.1:22222]	Created and set shutdown event DESKTOP-UJQCPPI-Shutdown	
[2017-08-16 02:37:47.403 GMT     1	INFO   	100294	SystemStatus	127.0.0.1:22222]	SystemStatus=Starting	
[2017-08-16 02:37:47.405 GMT     1	INFO   	100401	Silo	127.0.0.1:22222]	Silo Start()	
[2017-08-16 02:37:47.410 GMT     1	INFO   	100430	Silo	127.0.0.1:22222]	Configured ThreadPool.SetMinThreads() to values: 200,200. Previous values are: 8,8.	
[2017-08-16 02:37:47.411 GMT     1	INFO   	100436	Silo	127.0.0.1:22222]	Configured .NET ServicePointManager to Expect100Continue=False, DefaultConnectionLimit=200, UseNagleAlgorithm=False to improve Azure storage performance.	
[2017-08-16 02:37:47.497 GMT     1	INFO   	101711	AssemblyLoader.Silo	127.0.0.1:22222]	Loaded grain type summary for 12 types: 
Grain class Grain.Grain.GameGrain [-278818748 (0xEF619044)] from Grain.dll implementing interfaces: IGrain.IGrain.IGameGrain [-1181533925 (0xB993391B)], Orleans.Orleans.IGrainWithStringKey [-1277021679 (0xB3E23211)]
Grain class Grain.Grain.MongoGrain [252617243 (0xF0EA21B)] from Grain.dll implementing interfaces: IGrain.IGrain.IMongoGrain [-342927010 (0xEB8F595E)], Orleans.Orleans.IGrainWithStringKey [-1277021679 (0xB3E23211)]
Grain class Grain.Grain.ObserverGrain [1180447663 (0x465C33AF)] from Grain.dll implementing interfaces: IGrain.IGrain.IObserverGrain [1690271801 (0x64BF8039)], Orleans.Orleans.IGrainWithStringKey [-1277021679 (0xB3E23211)]
Grain class Grain.Grain.StateGrain [1480968852 (0x5845CA94)] from Grain.dll implementing interfaces: IGrain.IGrain.IStateGrain [30976365 (0x1D8A96D)], Orleans.Orleans.IGrainWithStringKey [-1277021679 (0xB3E23211)]
Grain class GrainsRedis.GrainsRedis.Grain1 [-1518744033 (0xA579CE1F)] from GrainsRedis.dll implementing interfaces: IGrainRedis.IGrainRedis.IGrain1 [1676604695 (0x63EEF517)]
Grain class Orleans.LogConsistency.Orleans.LogConsistency.LogConsistentGrainBase<TView> [-2062750837 (0x850CEB8B)] from Orleans.dll implementing interfaces: 
Grain class Orleans.Providers.Orleans.Providers.MemoryStreamQueueGrain [1359359215 (0x51062CEF)] from OrleansProviders.dll implementing interfaces: Orleans.Providers.Orleans.Providers.IMemoryStreamQueueGrain [1158152105 (0x4507FFA9)]
Grain class Orleans.Runtime.Management.Orleans.Runtime.Management.ManagementGrain [1954798034 (0x7483D9D2)] from OrleansRuntime.dll implementing interfaces: Orleans.Runtime.Orleans.Runtime.IManagementGrain [-1734666656 (0x989B1660)]
Grain class Orleans.Runtime.MembershipService.Orleans.Runtime.MembershipService.GrainBasedMembershipTable [-2103923544 (0x8298ACA8)] from OrleansRuntime.dll implementing interfaces: Orleans.Orleans.IMembershipTableGrain [-1256503757 (0xB51B4633)]
Grain class Orleans.Runtime.ReminderService.Orleans.Runtime.ReminderService.GrainBasedReminderTable [-55315191 (0xFCB3F509)] from OrleansRuntime.dll implementing interfaces: Orleans.Orleans.IReminderTableGrain [-1135060418 (0xBC585A3E)]
Grain class Orleans.Storage.Orleans.Storage.MemoryStorageGrain [819348208 (0x30D642F0)] from OrleansRuntime.dll implementing interfaces: Orleans.Storage.Orleans.Storage.IMemoryStorageGrain [577125491 (0x22663C73)]
Grain class Orleans.Streams.Orleans.Streams.PubSubRendezvousGrain [1903070868 (0x716E8E94)] from OrleansRuntime.dll implementing interfaces: Orleans.Streams.Orleans.Streams.IPubSubRendezvousGrain [1746702088 (0x681C8F08)]
	
[2017-08-16 02:37:47.530 GMT    13	INFO   	100000	Runtime.Scheduler.WorkerPoolThread/System.9	127.0.0.1:22222]	Starting AsyncAgent Runtime.Scheduler.WorkerPoolThread/System.9 on managed thread 13	
[2017-08-16 02:37:47.530 GMT     8	INFO   	100000	Runtime.Scheduler.WorkerPoolThread/3	127.0.0.1:22222]	Starting AsyncAgent Runtime.Scheduler.WorkerPoolThread/3 on managed thread 8	
[2017-08-16 02:37:47.530 GMT     7	INFO   	100000	Runtime.Scheduler.WorkerPoolThread/2	127.0.0.1:22222]	Starting AsyncAgent Runtime.Scheduler.WorkerPoolThread/2 on managed thread 7	
[2017-08-16 02:37:47.530 GMT     5	INFO   	100000	Runtime.Scheduler.WorkerPoolThread/0	127.0.0.1:22222]	Starting AsyncAgent Runtime.Scheduler.WorkerPoolThread/0 on managed thread 5	
[2017-08-16 02:37:47.530 GMT     6	INFO   	100000	Runtime.Scheduler.WorkerPoolThread/1	127.0.0.1:22222]	Starting AsyncAgent Runtime.Scheduler.WorkerPoolThread/1 on managed thread 6	
[2017-08-16 02:37:47.532 GMT     9	INFO   	100000	Runtime.Scheduler.WorkerPoolThread/4	127.0.0.1:22222]	Starting AsyncAgent Runtime.Scheduler.WorkerPoolThread/4 on managed thread 9	
[2017-08-16 02:37:47.534 GMT    10	INFO   	100000	Runtime.Scheduler.WorkerPoolThread/5	127.0.0.1:22222]	Starting AsyncAgent Runtime.Scheduler.WorkerPoolThread/5 on managed thread 10	
[2017-08-16 02:37:47.538 GMT    11	INFO   	100000	Runtime.Scheduler.WorkerPoolThread/6	127.0.0.1:22222]	Starting AsyncAgent Runtime.Scheduler.WorkerPoolThread/6 on managed thread 11	
[2017-08-16 02:37:47.540 GMT    12	INFO   	100000	Runtime.Scheduler.WorkerPoolThread/7	127.0.0.1:22222]	Starting AsyncAgent Runtime.Scheduler.WorkerPoolThread/7 on managed thread 12	
[2017-08-16 02:37:47.543 GMT    18	INFO   	100000	Runtime.Messaging.IncomingMessageAcceptor	127.0.0.1:22222]	Starting AsyncAgent Runtime.Messaging.IncomingMessageAcceptor on managed thread 18	
[2017-08-16 02:37:47.544 GMT    19	INFO   	100000	Runtime.Messaging.SiloMessageSender/PingSender	127.0.0.1:22222]	Starting AsyncAgent Runtime.Messaging.SiloMessageSender/PingSender on managed thread 19	
[2017-08-16 02:37:47.546 GMT    20	INFO   	100000	Runtime.Messaging.SiloMessageSender/SystemSender	127.0.0.1:22222]	Starting AsyncAgent Runtime.Messaging.SiloMessageSender/SystemSender on managed thread 20	
[2017-08-16 02:37:47.547 GMT    30	INFO   	100000	Runtime.Messaging.IncomingMessageAgent/Ping	127.0.0.1:22222]	Starting AsyncAgent Runtime.Messaging.IncomingMessageAgent/Ping on managed thread 30	
[2017-08-16 02:37:47.548 GMT    29	INFO   	100000	Runtime.Messaging.IncomingMessageAgent/System	127.0.0.1:22222]	Starting AsyncAgent Runtime.Messaging.IncomingMessageAgent/System on managed thread 29	
[2017-08-16 02:37:47.548 GMT    31	INFO   	100000	Runtime.Messaging.IncomingMessageAgent/Application	127.0.0.1:22222]	Starting AsyncAgent Runtime.Messaging.IncomingMessageAgent/Application on managed thread 31	
[2017-08-16 02:37:47.549 GMT     1	INFO   	100000	Orleans.GrainDirectory.LocalGrainDirectory	127.0.0.1:22222]	Start (SeverityLevel=Info)	
[2017-08-16 02:37:47.553 GMT    14	INFO   	100000	Runtime.GrainDirectory.AdaptiveDirectoryCacheMaintainer`1	127.0.0.1:22222]	Starting AsyncAgent Runtime.GrainDirectory.AdaptiveDirectoryCacheMaintainer`1 on managed thread 14	
[2017-08-16 02:37:47.553 GMT    15	INFO   	100000	Runtime.GrainDirectory.GlobalSingleInstanceActivationMaintainer	127.0.0.1:22222]	Starting AsyncAgent Runtime.GrainDirectory.GlobalSingleInstanceActivationMaintainer on managed thread 15	
[2017-08-16 02:37:47.562 GMT    18	INFO   	100328	Runtime.Messaging.IncomingMessageAcceptor	127.0.0.1:22222]	Stopping AsyncAgent Runtime.Messaging.IncomingMessageAcceptor that runs on managed thread 18	
[2017-08-16 02:37:47.563 GMT    15	INFO   	100328	Runtime.GrainDirectory.GlobalSingleInstanceActivationMaintainer	127.0.0.1:22222]	Stopping AsyncAgent Runtime.GrainDirectory.GlobalSingleInstanceActivationMaintainer that runs on managed thread 15	
[2017-08-16 02:37:47.589 GMT     1	INFO   	100000	ReminderFactory	127.0.0.1:22222]	Creating reminder grain service for type=ReminderTableGrain	
[2017-08-16 02:37:47.594 GMT    17	INFO   	100000	TypeManager	127.0.0.1:22222]	OnRefreshClusterMapTimer: refresh start	
[2017-08-16 02:37:47.640 GMT    13	INFO   	103102	ProviderLoader/IStorageProvider	127.0.0.1:22222]	Loaded provider of type Orleans.Storage.MemoryStorage Name=MemoryStore	
[2017-08-16 02:37:47.641 GMT     9	INFO   	100507	Catalog	127.0.0.1:22222]	Before collection#1: memory=40MB, #activations=0, collector=<#Activations=0, #Buckets=0, buckets=[]>.	
[2017-08-16 02:37:47.645 GMT     9	INFO   	100508	Catalog	127.0.0.1:22222]	After collection#1: memory=40MB, #activations=0, collected 0 activations, collector=<#Activations=0, #Buckets=0, buckets=[]>, collection time=00:00:00.0078397.	
[2017-08-16 02:37:47.651 GMT    13	INFO   	0	Storage.MemoryStorage.1	127.0.0.1:22222]	Init: Name=MemoryStore NumStorageGrains=10	
[2017-08-16 02:37:47.661 GMT    13	INFO   	100603	MembershipOracle	127.0.0.1:22222]	MembershipOracle starting on host = DESKTOP-UJQCPPI address = S127.0.0.1:22222:240547063 at 2017-08-16 02:37:44.918 GMT, backOffMax = 00:00:20	
[2017-08-16 02:37:47.667 GMT    13	INFO   	100635	MembershipTableFactory	127.0.0.1:22222]	Creating membership table grain	
[2017-08-16 02:37:47.711 GMT     8	INFO   	100637	GrainBasedMembershipTable	127.0.0.1:22222]	GrainBasedMembershipTable Activated.	
[2017-08-16 02:37:47.786 GMT    13	INFO   	100631	MembershipTableFactory	127.0.0.1:22222]	-Connected to membership table provider.	
[2017-08-16 02:37:47.820 GMT    10	INFO   	100000	GrainBasedMembershipTable	127.0.0.1:22222]	InitializeMembershipTable True.	
[2017-08-16 02:37:53.714 GMT     5	INFO   	100652	MembershipOracle	127.0.0.1:22222]	-CleanupTable called on silo startup. Membership table 0 silos, 0 are Active, 0 are Dead, Version=<0, 0>. All silos: []	
[2017-08-16 02:37:53.753 GMT     5	INFO   	100660	MembershipOracle	127.0.0.1:22222]	Starting IAmAliveUpdateTimer.	
[2017-08-16 02:37:53.765 GMT     5	INFO   	100604	MembershipOracle	127.0.0.1:22222]	-BecomeActive	
[2017-08-16 02:37:53.771 GMT     5	INFO   	100614	MembershipOracle	127.0.0.1:22222]	About to send pings to 0 nodes in order to validate communication in the Joining state. Pinged nodes = []	
[2017-08-16 02:37:53.779 GMT     5	INFO   	100634	MembershipOracle	127.0.0.1:22222]	-ReadAll (called from BecomeActive) Membership table 1 silos, 1 are Active, 0 are Dead, Version=<2, 5>. All silos: [SiloAddress=S127.0.0.1:22222:240547063 SiloName=DESKTOP-UJQCPPI Status=Active]	
[2017-08-16 02:37:53.782 GMT     5	INFO   	100605	MembershipOracle	127.0.0.1:22222]	-Finished BecomeActive.	
[2017-08-16 02:37:53.784 GMT     1	INFO   	100702	WindowsPerfCountersStatistics	127.0.0.1:22222]	Starting Windows perf counter stats collection with frequency=00:00:30	
[2017-08-16 02:37:53.820 GMT     1	INFO   	100714	SiloPerformanceMetrics	127.0.0.1:22222]	Starting Silo Table metrics reporter with reportFrequency=00:00:30	
[2017-08-16 02:37:53.825 GMT    13	INFO   	100000	DeploymentLoadPublisher	127.0.0.1:22222]	Starting DeploymentLoadPublisher.	
[2017-08-16 02:37:53.855 GMT    13	INFO   	100000	DeploymentLoadPublisher	127.0.0.1:22222]	Started DeploymentLoadPublisher.	
[2017-08-16 02:37:53.859 GMT     1	INFO   	100000	Watchdog	127.0.0.1:22222]	Starting Silo Watchdog.	
[2017-08-16 02:37:53.860 GMT    34	INFO   	100000	Runtime.Watchdog	127.0.0.1:22222]	Starting AsyncAgent Runtime.Watchdog on managed thread 34	
[2017-08-16 02:37:53.890 GMT     5	INFO   	100000	GrainBasedReminderTable_S127.0.0.1:22222:240547063*grn/FCB3F509/00003039@1f0a2b9f	127.0.0.1:22222]	GrainBasedReminderTable *grn/FCB3F509/00003039 Activated. Full identity: [ActivationAddress: S127.0.0.1:22222:240547063*grn/FCB3F509/00003039@1f0a2b9f, Full GrainId: [GrainId: *grn/FCB3F509/0000000000000000000000000000303903fffffffcb3f509-0xBB9ED002, IdCategory: Grain, BaseTypeCode: -55315191 (xFCB3F509), PrimaryKey: 12345 (x3039), UniformHashCode: 3147747330 (0xBB9ED002)], Full ActivationId: @4306f2e3a560c752a889241b1f0a2b9f0000000000000000]	
[2017-08-16 02:37:53.896 GMT     7	INFO   	102925	Orleans.Runtime.ReminderService.LocalReminderService	127.0.0.1:22222]	Starting Orleans.Runtime.ReminderService.LocalReminderService grain service on: S127.0.0.1:22222:240547063 xEC227CF9, with range 	
[2017-08-16 02:37:53.924 GMT    21	INFO   	100000	Runtime.Messaging.GatewayAcceptor	127.0.0.1:22222]	Starting AsyncAgent Runtime.Messaging.GatewayAcceptor on managed thread 21	
[2017-08-16 02:37:53.924 GMT     1	INFO   	100294	SystemStatus	127.0.0.1:22222]	SystemStatus=Running	
[2017-08-16 02:37:53.924 GMT    22	INFO   	100000	Runtime.Messaging.GatewayClientCleanupAgent	127.0.0.1:22222]	Starting AsyncAgent Runtime.Messaging.GatewayClientCleanupAgent on managed thread 22	
[2017-08-16 02:37:53.927 GMT    21	INFO   	100328	Runtime.Messaging.GatewayAcceptor	127.0.0.1:22222]	Stopping AsyncAgent Runtime.Messaging.GatewayAcceptor that runs on managed thread 21	
[2017-08-16 02:37:53.928 GMT     1	INFO   	100424	OrleansSiloHost	127.0.0.1:22222]	Silo startup event name: DESKTOP-UJQCPPI	
[2017-08-16 02:37:53.930 GMT     1	INFO   	100425	OrleansSiloHost	127.0.0.1:22222]	Created and set startup event DESKTOP-UJQCPPI	
[2017-08-16 02:37:53.931 GMT     1	INFO   	100402	OrleansSiloHost	127.0.0.1:22222]	Silo DESKTOP-UJQCPPI started successfully	
[2017-08-16 02:37:56.705 GMT     5	WARNING	101215	Scheduler.DeploymentLoadPublisherSystemTarget.WorkItemGroup	127.0.0.1:22222]	Task [Id=680, Status=RanToCompletion] in WorkGroup [SystemTarget: S127.0.0.1:22222:240547063DeploymentLoadPublisherSystemTarget@S00000016] took elapsed time 0:00:00.2198242 for execution, which is longer than 00:00:00.2000000. Running on thread <Runtime.Scheduler.WorkerPoolThread/0, ManagedThreadId=5, Executing Task Id=680 Status=RanToCompletion for 00:00:00.2209985 on WorkItem=System*WorkItemGroup:Name=DeploymentLoadPublisherSystemTarget,WorkGroupStatus=Running Executing for 00:00:00.2220178. .>	
